Quizizz data analysis
…
data$is_reg <- as.factor(as.integer(is.na(data$userId)))

Metric 1 - Number of events (n_events)

The first metric we look at is the number of events. Here, n_events is the number of events for a particular session.

#Number of events per session across both versions
eventsPerSessionAB <- data %>% select(everything()) %>% 
  group_by(sessionId, version, is_reg) %>% summarise("n_events" = length(eventId)) %>% 
  arrange(desc(n_events)) 

eventsPerSessionAB

## # A tibble: 50,210 x 4
## # Groups:   sessionId, version [50,210]
##    sessionId                        version is_reg n_events
##    <fct>                            <fct>   <fct>     <int>
##  1 3149655934875133.5-0531211005509 A       0            97
##  2 6806286385066675-0531081108826   B       1            69
##  3 5971421104474900-0529655653827   B       1            62
##  4 5112061776162483-0529586357871   B       1            61
##  5 2139220364593765.8-0529763310479 B       0            52
##  6 7593663885154540-0531052882995   B       1            47
##  7 NaN-0531054367270                B       1            45
##  8 6491586572480890-0531073400997   B       0            42
##  9 8454131905272713-0529767624171   B       1            42
## 10 8054399907552187-0529995340346   B       1            38
## # ... with 50,200 more rows
…
Metric 2 - Time spent in a session (session_duration)

Now we look at a second metric, the duration of time spent by users on both versions.

timePerSessionAB <- data %>% select(sessionId, version, serverTime) %>% 
  arrange(serverTime) %>%
  group_by(sessionId, version) %>% 
  summarise("session_duration" = as.numeric(last(serverTime) - first(serverTime),
                                            units = "mins"))

timePerSessionAB

## # A tibble: 50,210 x 3
## # Groups:   sessionId [?]
##    sessionId                        version session_duration
##    <fct>                            <fct>              <dbl>
##  1 0000380802421095.9-0529718317435 B                 2.72  
##  2 000042594089485.98-0529968044866 B                 0.05  
##  3 0000591060603443.9-0531182978688 B                 0     
##  4 0000617186038898.9-0529876143371 A                 0     
##  5 0000792954124260.9-0531088856248 B                25.6   
##  6 0002014200214197.9-0531020121739 A                 0     
##  7 0002117489093016.9-0531279760481 B                 0.0833
##  8 0002414611200740.9-0529807959526 B                 0.2   
##  9 0002417965433855.9-0531186345034 A                 0     
## 10 0002657341410519.9-0531066556626 B                 1.9   
## # ... with 50,200 more rows
…
Since all the pages contained in the data are registration-related, it is my assumption that something is causing users on version A to spend more time on this task.

This can potentially have undesirable effects, because people usually want to be done with it as quickly as possible.

Looking at the mean time spent per page -

timeSpentPerPage <- data %>% group_by(sessionId, page, version, is_reg) %>% 
  arrange(serverTime) %>%
  summarise("time_spent_mins" = abs(as.numeric(first(serverTime) - last(serverTime),
                                               units="mins")))

timeSpentPerPage

## # A tibble: 69,172 x 5
## # Groups:   sessionId, page, version [?]
##    sessionId                 page           version is_reg time_spent_mins
##    <fct>                     <fct>          <fct>   <fct>            <dbl>
##  1 0000380802421095.9-05297 signup_type_s B       1               2.72  
##  2 000042594089485.98-05299 signup_type_s B       1               0.05  
##  3 0000591060603443.9-05311 signup_type_s B       1               0     
##  4 0000617186038898.9-05298 signup_type    A       1               0     
##  5 0000792954124260.9-05310 signup_role_p B       0               0     
##  6 0000792954124260.9-05310 signup_type_s B       0              25.6   
##  7 0002014200214197.9-05310 signup_type    A       1               0     
##  8 0002117489093016.9-05312 signup_type_s B       1               0.0833
##  9 0002414611200740.9-05298 signup_type_s B       1               0.2   
## 10 0002417965433855.9-05311 signup_type    A       1               0     
## # ... with 69,162 more rows
…
The metric we inspect next is the bounce rate (bounce_rate), which is the proportion of sessions that ended after landing on one page only.

Has a session bounced or not? Flagging 1 for yes and 0 for no.

bounced_yesno <- data %>% select(everything()) %>% 
  group_by(sessionId, version, is_reg) %>% summarise("n_events" = length(eventId)) %>% 
  mutate("bounced" = as.integer(!n_events == 1)) %>% ungroup() %>%
  select(sessionId, bounced)

bounced_yesno$bounced <- as.factor(bounced_yesno$bounced)

bounced_yesno

## # A tibble: 50,210 x 2
##    sessionId                        bounced
##    <fct>                            <fct>  
##  1 0000380802421095.9-0529718317435 1      
##  2 000042594089485.98-0529968044866 1      
##  3 0000591060603443.9-0531182978688 0      
##  4 0000617186038898.9-0529876143371 0      
##  5 0000792954124260.9-0531088856248 1      
##  6 0002014200214197.9-0531020121739 0      
##  7 0002117489093016.9-0531279760481 1      
##  8 0002414611200740.9-0529807959526 1      
##  9 0002417965433855.9-0531186345034 0      
## 10 0002657341410519.9-0531066556626 1      
## # ... with 50,200 more rows
…
